10.3491555791516,10.7764332186718,10.5435917376876,10.1422994609288,10.2479770767299,10.4332249363727,10.4075364239123,10.4805491365494,10.4048826876106,10.0840842250367,10.1225401570366,10.0562611826967,10.1087912031153,10.0417261663868,10.0600702962334,10.057237501584,10.618298157517,11.3247450448896,12.0758451846108,10.046737234215
10.160739745561,11.2481608678169,10.3095212126938,10.1139268899513,10.8783117312049,10.2112823556053,10.5764329435527,10.93021869614961,10.2125816292846,10.2019325294695,10.087777379733,10.0812602257224,10.95735274462163,10.92158336184328,10.89702570909146,10.3455609381757,12.1212415594487,12.8498078413974,12.2369763339826,14.4758104653071
10.58720015740265,10.75129613478883,10.91171545894445,10.0384880123789,10.54774853892008,10.0468718465091,10.78503959522545,10.0999140629097,10.97993359304625,10.94178040163346,10.88916098340689,10.02695858213593,12.0182519393656,13.93776049024489,12.100726303176,12.9430110558524,13.6016589216939,14.8206892839067,12.3007866070189,14.3781277347002
10.89928785802415,11.5717452454095,10.1714493616838,12.2656878240701,15.7347114643533,15.2457236838164,12.6920862496789,13.76154001148261,12.73123528028217,14.0742869142811,14.93631909475837,14.0126054166214,13.144884176423,13.8185816434511,12.86970560618127,12.9993769670961,13.97262,12.9475045657453,13.7894230506253,13.6543827734813
10.8128128062478,10.38658391704329,10.2292049859595,15.8824520587318,12.67242548249492,12.51745340063643,13.0198289292285,13.4445545189968,12.0312729738332,14.8685239325951,13.7574534555796,17.7291066345698,10.89069278975674,17.2424848939701,11.5022565159176,15.774273042607,12.51962279258415,12.90471873472348,13.7198964466722,15.5655091797014