1.30053000063588,1.81256541913054,1.92746530403483,2.61035024670275,2.22817269160973,2.34453490017565,2.44420678427907,2.51955555437665,2.60293029885367,3.3240838664456,3.41126695377414,3.38662278867818,3.52215751582725,3.09731744632057,3.56428127764249,3.68596036251527,3.731280296252,3.76105632118896,3.40047286355976,3.83176465263687
1.22373156059047,1.58114349390326,2.29196109346272,2.16200380671714,2.23082937875535,2.27803917167529,2.33584511869759,2.30550597795337,2.6389334413304,3.01763071430519,2.8782894719049,3.69959232277839,3.28524342613975,3.30187600661708,4.40931887207519,3.23752582054474,4.28767622706597,3.65307296002941,4.16130969929933,4.23823049542967
1.15878323398585,1.45291941306196,1.8541047332603,2.32806968712651,2.02825615154253,1.9623168194966,2.06707157059399,2.58540630630626,2.60205207083986,2.75483260531741,2.47261300997046,2.70839428059504,2.97129263122527,3.10654003322646,3.37373215065285,3.21351968854906,3.31586120650746,4.16670910116036,4.07241116015284,3.56263517225074
1.17427249461557,1.50001382758367,1.59816765078645,1.8493409757487,2.26187754486434,2.05264593132594,2.06593394822621,1.96721302985203,2.22119259855642,2.32838600527861,2.22320689198081,2.73166304260682,2.91733281108965,3.53328010682703,3.59953560680708,4.16708260067622,3.13612453384526,3.87925336144126,3.25484700065849,3.23102682777366
1.16699090424263,1.43040660881283,1.73878967378011,1.86992717818668,2.19386521726803,1.95778403804575,1.9632979350222,1.96334998352183,2.29638084324328,2.97344444948723,3.10793136664698,3.12765611532789,3.07252611519644,3.01821578186663,3.36391073061702,3.44505902551113,3.46863632987418,2.95797823872249,3.06792085369138,4.11020969504456