24.9690945811916,41.2108926961924,53.9004412757195,65.3400862527199,72.3159608437692,79.3517241724899,85.2052282782256,103.509813572867,94.9979188864725,99.0559948151319,102.954148044922,108.344950945678,109.553488014729,150.02004925101,134.52483312162,139.251868159968,210.279464493598,97.9069514857847,149.498181917617,208.073206358631
21.69818,54.212660616147,46.0223681405355,57.19056,67.1816859472108,70.76031,82.5113885447892,93.04698,119.159389169156,106.601540941915,103.901406467271,99.07487,104.50558,140.991058494064,196.91507958132,129.8308,98.16903,137.432761174973,149.826461799442,140.94
26.4731754876946,30.8221585975664,37.6272721900372,42.3229064285432,49.0437122180929,80.5648447859958,72.9363974785829,85.90241,85.9561816510679,84.0916126056582,89.5392660435079,108.443934476643,117.552162081849,146.202532811687,124.097120084093,139.9592,92.6738386025968,134.2657,90.55602,227.585220597006
23.8618312133848,35.7360966857384,35.4982323542301,32.1462807905327,52.95272,77.5211553079697,88.7632669200041,62.3678348823024,74.35995,89.3004852973821,105.629077854108,90.6405,91.50782,126.820062902482,188.363732050609,128.935,110.048284752088,114.952240760138,91.5042411769234,100.179972347194
17.0660738748969,30.0932363435016,37.1251171750173,48.9131310344007,55.4482586694262,54.93145,60.11541,73.540081295,69.25531,68.47454,77.38778,101.70985,121.104283430348,125.358678287067,131.2449,142.186599723881,120.024722148114,145.1990,150.1990,158.8510222682634